{
  "project_info": {
    "project_number": "608594011911",
    "project_id": "skywaygameid",
    "storage_bucket": "skywaygameid.appspot.com"
  },
  "client": [
    {
      "client_info": {
        "mobilesdk_app_id": "1:608594011911:android:9183c9af1b6f4fefeb87a2",
        "android_client_info": {
          "package_name": "com.mongbavuong.skyway"
        }
      },
      "oauth_client": [
        {
          "client_id": "608594011911-uisj1063ne1k91ius0t8qh1v8756fmo4.apps.googleusercontent.com",
          "client_type": 1,
          "android_info": {
            "package_name": "com.mongbavuong.skyway",
            "certificate_hash": "d27050f3ea8ac430b8934d9262c45ff232a6e41c"
          }
        },
        {
          "client_id": "608594011911-roaogm4cokrdm1lrg1k6dv2quu059sja.apps.googleusercontent.com",
          "client_type": 3
        }
      ],
      "api_key": [
        {
          "current_key": "AIzaSyDkswDuKVR0QJFH3NGLHl8y2AES14_1X_w"
        }
      ],
      "services": {
        "appinvite_service": {
          "other_platform_oauth_client": [
            {
              "client_id": "608594011911-5hlpcncj2kp1lmckf3mdqdeop0qorom1.apps.googleusercontent.com",
              "client_type": 3
            },
            {
              "client_id": "608594011911-avia7p1h71fpmj7j0voao9taav32b1on.apps.googleusercontent.com",
              "client_type": 2,
              "ios_info": {
                "bundle_id": "com.mongbavuong.skyway"
              }
            }
          ]
        }
      }
    }
  ],
  "configuration_version": "1"
}